<?xml version="1.0" encoding="UTF-8" standalone="no"?>
<!-- Created with Inkscape (http://www.inkscape.org/) -->

<svg
   xmlns:osb="http://www.openswatchbook.org/uri/2009/osb"
   xmlns:dc="http://purl.org/dc/elements/1.1/"
   xmlns:cc="http://creativecommons.org/ns#"
   xmlns:rdf="http://www.w3.org/1999/02/22-rdf-syntax-ns#"
   xmlns:svg="http://www.w3.org/2000/svg"
   xmlns="http://www.w3.org/2000/svg"
   xmlns:sodipodi="http://sodipodi.sourceforge.net/DTD/sodipodi-0.dtd"
   xmlns:inkscape="http://www.inkscape.org/namespaces/inkscape"
   width="210mm"
   height="297mm"
   viewBox="0 0 210 297"
   version="1.1"
   id="svg8"
   inkscape:export-filename="/home/aleksandar/relay_released.png"
   inkscape:export-xdpi="47.999992"
   inkscape:export-ydpi="47.999992"
   inkscape:version="0.92.3 (2405546, 2018-03-11)"
   sodipodi:docname="drawing.svg">
  <defs
     id="defs2">
    <linearGradient
       id="linearGradient2624"
       osb:paint="solid">
      <stop
         style="stop-color:#000000;stop-opacity:1;"
         offset="0"
         id="stop2622" />
    </linearGradient>
    <filter
       inkscape:label="Button"
       inkscape:menu="Bevels"
       inkscape:menu-tooltip="Soft bevel, slightly depressed middle"
       style="color-interpolation-filters:sRGB;"
       id="filter1028">
      <feGaussianBlur
         stdDeviation="2.3"
         in="SourceAlpha"
         result="result0"
         id="feGaussianBlur1002" />
      <feMorphology
         in="SourceAlpha"
         radius="6.6"
         result="result1"
         id="feMorphology1004" />
      <feGaussianBlur
         stdDeviation="8.9"
         in="result1"
         id="feGaussianBlur1006" />
      <feColorMatrix
         values="1 0 0 0 0 0 1 0 0 0 0 0 1 0 0 0 0 0 0.3 0"
         result="result91"
         id="feColorMatrix1008" />
      <feComposite
         in="result0"
         operator="out"
         result="result2"
         in2="result91"
         id="feComposite1010" />
      <feGaussianBlur
         stdDeviation="1.7"
         result="result4"
         id="feGaussianBlur1012" />
      <feDiffuseLighting
         surfaceScale="10"
         id="feDiffuseLighting1016">
        <feDistantLight
           azimuth="225"
           elevation="45"
           id="feDistantLight1014" />
      </feDiffuseLighting>
      <feBlend
         in2="SourceGraphic"
         mode="multiply"
         id="feBlend1018" />
      <feComposite
         in2="SourceAlpha"
         operator="in"
         result="result3"
         id="feComposite1020" />
      <feSpecularLighting
         in="result4"
         surfaceScale="5"
         specularExponent="17.9"
         id="feSpecularLighting1024">
        <feDistantLight
           azimuth="225"
           elevation="45"
           id="feDistantLight1022" />
      </feSpecularLighting>
      <feComposite
         in2="result3"
         operator="atop"
         id="feComposite1026" />
    </filter>
  </defs>
  <sodipodi:namedview
     id="base"
     pagecolor="#000073"
     bordercolor="#666666"
     borderopacity="1.0"
     inkscape:pageopacity="0"
     inkscape:pageshadow="2"
     inkscape:zoom="1"
     inkscape:cx="224.60126"
     inkscape:cy="724.73217"
     inkscape:document-units="mm"
     inkscape:current-layer="layer1"
     showgrid="false"
     inkscape:window-width="1853"
     inkscape:window-height="1025"
     inkscape:window-x="67"
     inkscape:window-y="27"
     inkscape:window-maximized="1"
     showguides="true">
    <inkscape:grid
       type="xygrid"
       id="grid8083" />
  </sodipodi:namedview>
  <metadata
     id="metadata5">
    <rdf:RDF>
      <cc:Work
         rdf:about="">
        <dc:format>image/svg+xml</dc:format>
        <dc:type
           rdf:resource="http://purl.org/dc/dcmitype/StillImage" />
        <dc:title></dc:title>
      </cc:Work>
    </rdf:RDF>
  </metadata>
  <g
     inkscape:label="Layer 1"
     inkscape:groupmode="layer"
     id="layer1">
    <g
       id="g12112"
       inkscape:export-xdpi="46.829266"
       inkscape:export-ydpi="46.829266"
       transform="rotate(-180,88.106251,100.94371)">
      <rect
         y="48.02705"
         x="35.189579"
         height="105.83333"
         width="105.83334"
         id="rect12105"
         style="fill:none;fill-opacity:1;fill-rule:nonzero;stroke:#000000;stroke-width:2.64583325;stroke-linecap:round;stroke-linejoin:miter;stroke-miterlimit:4;stroke-dasharray:none;stroke-opacity:1;paint-order:fill markers stroke" />
      <path
         id="path11983"
         d="m 35.189578,48.02705 5.29166,5.29166 h 95.250002 l 5.29167,-5.29166 z"
         style="fill:#666666;fill-opacity:1;fill-rule:nonzero;stroke:none;stroke-width:0.26984248;stroke-linecap:round;stroke-linejoin:round;stroke-miterlimit:4;stroke-dasharray:none;stroke-opacity:1;paint-order:fill markers stroke"
         inkscape:connector-curvature="0" />
      <path
         id="path11976"
         d="m 35.189578,153.86038 5.29166,-5.29167 v -95.25 l -5.29166,-5.29166 z"
         style="fill:#666666;fill-opacity:1;fill-rule:nonzero;stroke:none;stroke-width:0.26984248;stroke-linecap:round;stroke-linejoin:round;stroke-miterlimit:4;stroke-dasharray:none;stroke-opacity:1;paint-order:fill markers stroke"
         inkscape:connector-curvature="0" />
      <path
         id="path12034"
         d="m 141.0229,153.86038 1e-5,-105.83333 -5.29167,5.29166 v 95.25 z"
         style="fill:#f2f2f2;fill-opacity:1;fill-rule:nonzero;stroke:none;stroke-width:0.26984248;stroke-linecap:round;stroke-linejoin:round;stroke-miterlimit:4;stroke-dasharray:none;stroke-opacity:1;paint-order:fill markers stroke"
         inkscape:connector-curvature="0" />
      <path
         id="rect11935"
         d="m 141.0229,153.86038 -5.29166,-5.29167 H 40.481238 l -5.29166,5.29167 z"
         style="fill:#f2f2f2;fill-opacity:1;fill-rule:nonzero;stroke:none;stroke-width:0.26984248;stroke-linecap:round;stroke-linejoin:round;stroke-miterlimit:4;stroke-dasharray:none;stroke-opacity:1;paint-order:fill markers stroke"
         inkscape:connector-curvature="0" />
    </g>
    <g
       id="g12274"
       transform="matrix(0.13229167,0,0,0.13229167,150.75958,110.20416)"
       inkscape:export-xdpi="46.829266"
       inkscape:export-ydpi="46.829266">
      <g
         id="g12421"
         transform="matrix(0.90846154,0,0,0.90846154,-70.865818,-34.000572)"
         inkscape:export-xdpi="46.829277"
         inkscape:export-ydpi="46.829277">
        <path
           inkscape:connector-curvature="0"
           style="fill:none;stroke:#ffffff;stroke-width:20;stroke-miterlimit:4;stroke-dasharray:none;stroke-opacity:1"
           id="path12410"
           d="m -443.31446,324.6228 c -200.85249,0 -364.25909,-163.40053 -364.25909,-364.246832 0,-200.846398 163.4066,-364.252998 364.25909,-364.252998 200.85249,0 364.259093,163.4056 364.259093,364.252998 0,200.847402 -163.405583,364.246832 -364.259093,364.246832 z" />
        <path
           inkscape:connector-curvature="0"
           d="m -199.08403,6.7183676 c -29.54899,19.5964004 -58.09923,0.1515 -87.20512,-23.2964996 -2.54497,-2.0548 -4.93848,-3.9807 -7.16212,-5.7091 -42.19808,-32.7355 -63.27717,-37.0969 -83.13647,-37.5287 -6.24626,-20.5766 -21.48738,-37.1552 -41.36408,-44.930298 6.14086,-19.2811 15.31173,-42.2861 25.68499,-57.5569 27.69885,-40.8094 83.94794,-73.0896 151.28149,-29.7178 37.63925,24.2309 66.30103,82.6279 66.68067,135.847998 0.12382,17.2662 -2.93586,48.3910996 -24.77936,62.8912996 z M -367.65018,71.063868 c 20.83963,44.703202 19.72422,109.526542 -51.9993,145.140672 -40.07984,19.89921 -104.93289,14.58723 -150.82612,-12.35745 -14.88502,-8.74415 -40.05016,-27.3192 -41.31087,-53.49942 -1.70483,-35.3747 29.61345,-49.9619 64.65453,-62.944602 3.08833,-1.1441 5.97713,-2.2124 8.60395,-3.2398 53.00317,-20.7281 68.37937,-41.5503 77.42744,-56.3136 5.71517,1.5114 11.60429,2.5747 17.78609,2.5747 14.08581,0 27.16161,-4.2672 38.15908,-11.4529 11.47127,12.7023 28.88998,33.6003 37.5052,52.0924 z m -75.66428,-152.7172 c 23.17481,0 42.02923,18.8493 42.02923,42.0293 0,23.1748 -18.85442,42.0291996 -42.02923,42.0291996 -23.17482,0 -42.02923,-18.8543996 -42.02923,-42.0291996 0,-23.181 18.85543,-42.0293 42.02923,-42.0293 z m -70.04838,42.0293 c 0,4.174 0.53109,8.2069 1.23206,12.1824 -17.16187,4.9447 -40.49427,10.3385 -60.28297,9.8535 -49.31414,-0.9456 -107.04601,-30.471 -107.46659,-110.548798 -0.23331,-44.7615 33.06302,-100.6483 77.45609,-130.0049 14.40099,-9.5321 42.13464,-23.9331 66.21917,-13.566 32.51965,14.0449 31.8371,48.5845 28.06622,85.7807 -0.32644,3.2633 -0.6365,6.322 -0.86981,9.1238 -4.6233,55.9104 5.54529,76.3294 14.27819,89.977198 -11.45796,12.4752 -18.63236,28.9657 -18.63236,47.2021 z m 367.07834,-16.7423 c -0.38476,-53.926198 -27.82676,-125.930098 -79.52828,-159.215198 -78.89793,-50.7908 -152.08172,-17.7574 -189.63296,37.5349 -12.74324,18.7674 -23.51865,46.0682 -30.41266,68.63 -9.29879,0.3449 -18.11969,2.4171 -26.15162,6.0478 -6.44989,-10.6414 -12.74323,-26.7472 -9.0716,-71.1229 0.22205,-2.6442 0.5137,-5.534 0.82887,-8.6162 3.21625,-31.7962 9.20567,-90.9873 -44.84844,-114.3197 -26.79322,-11.5756 -59.74573,-5.9249 -92.77907,15.9186 -44.9825,29.7413 -90.33949,92.032 -90.01819,153.5235 0.4902,93.823898 68.13376,137.1260976 134.94849,138.416498 0.80534,0.017 1.61068,0.024 2.43445,0.024 23.57185,0 50.11437,-6.3046004 68.70068,-11.7444004 4.19658,6.3803 9.52698,11.8560004 15.52151,16.5550004 -7.55405,11.6575 -20.66465,26.4668 -62.44215,42.8059 -2.48049,0.9752 -5.21272,1.9791 -8.12607,3.0587 -29.96343,11.1029 -85.74487,31.7614 -82.91441,90.566702 1.40705,29.16318 20.97983,56.26646 55.11118,76.31201 28.62085,16.79961 68.35583,28.31181 107.53004,28.31181 24.48157,0 48.75951,-4.5005 69.94911,-15.02009 84.04721,-41.72531 93.17101,-121.51143 64.92878,-182.073832 -10.27911,-22.0655 -29.70658,-45.3969 -42.8929,-59.88590043 6.08867,-9.06549997 9.79508,-19.70679957 11.09059,-31.07779957 12.39326,0.6017 28.60345,4.5711 63.42861,31.59149957 2.09573,1.62300003 4.35417,3.44450003 6.76508,5.38260003 17.84441,14.3836004 46.72825,37.6566004 79.7268,37.6566004 13.02362,0 26.68271,-3.6194 40.5526,-12.8363 24.33116,-16.1468 37.58195,-46.8398 37.30156,-86.4233 z"
           style="fill:#ffffff;fill-opacity:0.98994978;stroke:#ffffff;stroke-opacity:1"
           id="path12389" />
      </g>
    </g>
  </g>
</svg>
